{
    "3evils": "3evils",
    "acm": "asiancinema",
    "ant": "anthelion",
    "ath": "aither",
    "bhd": "beyond-hd",
    "bhdtv": "bit-hdtv",
    "blu": "blutopia",
    "dt": "desitorrents",
    "gpw": "greatposterwall",
    "lst": "lst",
    "nbl": "nebulance",
    "ntelogo": "ntelogo",
    "ptp": "passthepopcorn",
    "r4e": "racing4everyone",
    "rf": "reelflix",
    "spd": "speedapp",
    "stc": "skipthecommericals",
    "stt": "skipthetrailers",
    "szn": "swarmazon",
    "tdb": "torrentdb",
    "telly": "telly",
    "tsp": "thesceneplace"
}
