{
    "name": "AsianCinema",
    "url": "https://asiancinema.me",
    "upload_form": "https://asiancinema.me/api/torrents/upload?api_token={api_key}",
    "torrents_search": "https://asiancinema.me/api/torrents/filter?api_token={api_key}",
    "source": "acm",
    "platform": "UNIT3D",
    "bbcode_line_break": "<br />",
    "title_separator" : " ",
    "screenshot_type": "bbcode_images",

    "description_components":{
        "code_code": "[code][/code]",
        "spoiler_code":"[spoiler=TITLE_PLACEHOLDER][/spoiler]",
        "notes_code":"[note][/note]",
        "quote_code":"[quote][/quote]",
        "alert_code":"[alert][/alert]"
    },

    "technical_jargons": {
        "authentication_mode": "API_KEY",
        "response_type": "JSON",
        "payload_type": "MULTI-PART"
    },

    "hybrid_mappings": {
    },

    "translation": {
        "dot_torrent": "torrent",
        "torrent_title": "name",
        "description": "description",
        "mediainfo": "mediainfo",
        "bdinfo": "bdinfo",
        "type": "category_id",
        "source": "type_id",
        "resolution": "resolution_id",
        "tmdb": "tmdb",
        "imdb": "imdb",
        "anon": "anonymous",
        "live": "live",
        "season_number": "season_number",
        "episode_number": "episode_number",

        "sd": "sd",
        "tvdb": "tvdb",
        "mal": "mal",
        "igdb": "igdb",
        "optimized": "stream",
        "nfo_file": "nfo_file"
    },

    "Required": {
        "torrent": "file",
        "name": "string",
        "description": "string",
        "sd": "string",
        "anonymous": "string",
        "stream": "string",
        "igdb": "string",
        "mal": "string",
        "tvdb": "string",

        "category_id": {
            "1": "movie",
            "2": "episode"
        },

        "type_id": {

            "1": {
                "bluray_disc": 1,
                "2160p": 1,
                "uhd_100": 1
            },

            "2": {
                "bluray_disc": 1,
                "2160p": 1,
                "uhd_66": 1
            },

            "3": {
                "bluray_disc": 1,
                "2160p": 1,
                "uhd_50": 1
            },

            "4": {
                "bluray_disc": 1,
                "bd_50": 1,
                "1080p": 2,
                "1080i": 2

            },

            "5": {
                "bluray_disc": 1,
                "bd_25": 1,
                "1080p": 2,
                "1080i": 2
            },

            "12": {
                "bluray_remux": 1,
                "2160p": 1
            },

            "7": {
                "bluray_remux": 1,
                "1080p": 2,
                "1080i": 2
            },

            "8": {
                "bluray_disc": 1,
                "2160p": 1
            },

            "9": {
                "webdl": 1
            },

            "10": {
                "bluray_disc": 1,
                "1080p": 2,
                "1080i": 2
            },

            "11": {
                "720p": 1
            },

            "13": {
                "bluray_disc": 1,
                "576p": 2,
                "576i": 2,
                "480p": 2,
                "480i": 2
            },

            "17": {
                "hdtv": 1
            }
        },

        "resolution_id": {
            "1": {
                "2160p": 1
            },
            "2": {
                "1080": 1,
                "1080p": 2,
                "1080i": 2
            },
            "3": {
                "720p": 1
            },
            "4": {
                "576": 1,
                "576p": 2,
                "576i": 2
            },
            "5": {
                "480": 1,
                "480p": 2,
                "480i": 2
            }
        },

        "tmdb": "string",
        "imdb": "string"
    },

    "Optional": {
        "nfo_file": "file",
        "season_number": "string",
        "episode_number": "string",

        "bdinfo": "string",
        "mediainfo": "string"
    },

    "Default":{},

    "dupes": {
        "technical_jargons": {
            "authentication_mode": "API_KEY",
            "payload_type": "MULTI-PART",
            "request_method": "GET",
            "response_type": "JSON"
        },

        "strip_text": true,
        "url_format": "{search_url}&imdb={imdb}",

        "parse_json": {
            "is_needed": true,
            "top_lvl": "data",
            "torrent_details": "attributes"
        }
    },

    "torrent_title_format": {
        "episode": {
            "bluray_disc": "{title} {year} {s00e00} {screen_size} {region} {source} {dv} {hdr} {video_codec} {audio_codec} {audio_channels} {atmos} {release_group}",
            "bluray_remux": "{title} {year} {s00e00} {repack} {screen_size} {uhd} {hybrid} {source} {remux} {dv} {hdr} {video_codec} {audio_codec} {audio_channels} {atmos} {release_group}",
            "bluray_encode": "{title} {year} {s00e00} {repack} {screen_size} {uhd} {hybrid} {source} {audio_codec} {audio_channels} {atmos} {dv} {hdr} {video_codec} {release_group}",
            "web": "{title} {year} {s00e00} {repack} {screen_size} {web_source} {web_type} {audio_codec} {audio_channels} {atmos} {dv} {hdr} {video_codec} {release_group}",
            "hdtv": "{title} {year} {s00e00} {repack} {screen_size} {hybrid} {source} {audio_codec} {audio_channels} {video_codec} {release_group}",
            "dvd": "{title} {year} {s00e00} {edition} {repack} {screen_size} {region} {hybrid} {source} {video_codec} {remux} {audio_codec} {audio_channels} {atmos} {release_group}"
        },

        "movie": {
            "bluray_disc": "{title} {year} {edition} {repack} {screen_size} {region} {source} {dv} {hdr} {video_codec} {audio_codec} {audio_channels} {atmos} {release_group}",
            "bluray_remux": "{title} {year} {edition} {repack} {screen_size} {uhd} {hybrid} {source} {remux} {dv} {hdr} {video_codec} {audio_codec} {audio_channels} {atmos} {release_group}",
            "bluray_encode": "{title} {year} {edition} {repack} {screen_size} {uhd} {hybrid} {source} {audio_codec} {audio_channels} {atmos} {dv} {hdr} {video_codec} {release_group}",
            "web": "{title} {year} {edition} {repack} {screen_size} {hybrid} {web_source} {web_type} {audio_codec} {audio_channels} {atmos} {dv} {hdr} {video_codec} {release_group}",
            "hdtv": "{title} {year} {edition} {repack} {screen_size} {hybrid} {source} {audio_codec} {audio_channels} {atmos} {video_codec} {release_group}",
            "dvd": "{title} {year} {edition} {repack} {screen_size} {region} {hybrid} {source} {video_codec} {remux} {audio_codec} {audio_channels} {atmos} {release_group}"
        }
    }
}