{
    "name": "TheScenePlace",
    "url": "https://www.thesceneplace.com",
    "upload_form": "https://www.thesceneplace.com/api/upload.php?api_key={api_key}",
    "torrents_search": "https://www.thesceneplace.com/api/search.php?api_key={api_key}",
    "source": "TSP",
    "platform": "XBTIT",
    "bbcode_line_break": "\n",
    "title_separator": " ",
    "screenshot_type": "bbcode_images",
    
    "technical_jargons": {
        "authentication_mode": "API_KEY",
        "response_type": "JSON",
        "payload_type": "MULTI-PART"
    },
    "hybrid_mappings": {},
    "translation": {
        "dot_torrent": "torrent",
        "torrent_title": "filename",
        "description": "info",
        "mediainfo": "mediainfo",
        "bdinfo": "bdinfo",
        "type": "category",
        "source": "type_id",
        "resolution": "resolution_id",
        "tmdb": "tmdb",
        "imdb": "imdb",
        "anon": "anonymous",
        "live": "live",
        "sd": "sd",
        "tvdb": "tvdb",
        "mal": "mal",
        "igdb": "igdb",
        "nfo_file": "nfo",
        "season_number": "season_number",
        "episode_number": "episode_number",
        "optimized": "stream",
        "internal": "internal",
        "featured": "featured",
        "doubleup": "doubleup",
        "tripleup": "tripleup",
        "sticky": "sticky",
        "freeleech": "free"
    },
    "Required": {
        "torrent": "file",
        "filename": "string",
        "info": "string",
        "anonymous": "string",
        "sd": "string",
        "stream": "string",
        "tvdb": "string",
        "tmdb": "string",
        "imdb": "string",
        "mal": "string",
        "igdb": "string",
        "internal": "string",
        "free": "string",
        "featured": "string",
        "doubleup": "string",
        "tripleup": "string",
        "sticky": "string",
        "category": {
            "1": "movie",
            "2": "episode"
        },
        "type_id": {
            "1": {
                "disc": 1,
                "bluray_disc": 2,
                "dvd_disc": 2
            },
            "3": {
                "remux": 1,
                "bluray_remux": 2,
                "dvd_remux": 2
            },
            "12": {
                "bluray_encode": 1
            },
            "4": {
                "webdl": 1
            },
            "5": {
                "webrip": 1
            },
            "6": {
                "hdtv": 1
            }
        },
        "resolution_id": {
            "11": {
                "4360p": 1
            },
            "1": {
                "2160p": 1
            },
            "2": {
                "1080p": 1
            },
            "3": {
                "1080i": 1
            },
            "5": {
                "720p": 1
            },
            "6": {
                "576p": 1
            },
            "7": {
                "576i": 1
            },
            "8": {
                "480p": 1
            },
            "9": {
                "480i": 1
            },
            "10": {
                "other": 1
            }
        }
    },
    "Optional": {
        "nfo_file": "file",
        "season_number": "string",
        "episode_number": "string",
        "bdinfo": "string",
        "mediainfo": "string"
    },
    "Default": {},
    "dupes": {
        "technical_jargons": {
            "authentication_mode": "API_KEY",
            "payload_type": "MULTI-PART",
            "request_method": "GET",
            "response_type": "JSON"
        },
        "url_format": "{search_url}&filter={title}",
        "strip_text": false,
        "parse_json": {
            "is_needed": true,
            "top_lvl": "data"
        }
    },
    "torrent_title_format": {
        "episode": {
            "bluray_disc": "{title} {year} {s00e00} {screen_size} {region} {source} {dv} {hdr} {video_codec} {audio_codec} {audio_channels} {atmos} {release_group}",
            "bluray_remux": "{title} {year} {s00e00} {repack} {screen_size} {uhd} {hybrid} {source} {remux} {dv} {hdr} {video_codec} {audio_codec} {audio_channels} {atmos} {release_group}",
            "bluray_encode": "{title} {year} {s00e00} {repack} {screen_size} {uhd} {hybrid} {source} {audio_codec} {audio_channels} {atmos} {dv} {hdr} {video_codec} {release_group}",
            "web": "{title} {year} {s00e00} {repack} {screen_size} {web_source} {web_type} {audio_codec} {audio_channels} {atmos} {dv} {hdr} {video_codec} {release_group}",
            "hdtv": "{title} {year} {s00e00} {repack} {screen_size} {hybrid} {source} {audio_codec} {audio_channels} {video_codec} {release_group}",
            "dvd": "{title} {year} {s00e00} {edition} {repack} {screen_size} {region} {hybrid} {source} {video_codec} {remux} {audio_codec} {audio_channels} {atmos} {release_group}"
        },
        "movie": {
            "bluray_disc": "{title} {year} {edition} {repack} {screen_size} {region} {source} {dv} {hdr} {video_codec} {audio_codec} {audio_channels} {atmos} {release_group}",
            "bluray_remux": "{title} {year} {edition} {repack} {screen_size} {uhd} {hybrid} {source} {remux} {dv} {hdr} {video_codec} {audio_codec} {audio_channels} {atmos} {release_group}",
            "bluray_encode": "{title} {year} {edition} {repack} {screen_size} {uhd} {hybrid} {source} {audio_codec} {audio_channels} {atmos} {dv} {hdr} {video_codec} {release_group}",
            "web": "{title} {year} {edition} {repack} {screen_size} {hybrid} {web_source} {web_type} {audio_codec} {audio_channels} {atmos} {dv} {hdr} {video_codec} {release_group}",
            "hdtv": "{title} {year} {edition} {repack} {screen_size} {hybrid} {source} {audio_codec} {audio_channels} {atmos} {video_codec} {release_group}",
            "dvd": "{title} {year} {edition} {repack} {screen_size} {region} {hybrid} {source} {video_codec} {remux} {audio_codec} {audio_channels} {atmos} {release_group}"
        }
    },
    "banned_groups": [
        "AROMA",
        "aXXo",
        "BRrip",
        "CM8",
        "CrEwSaDe",
        "d3g",
        "DNL",
        "FGT",
        "FaNGDiNG0",
        "FRDS",
        "HD2DVD",
        "HDTime",
        "iPlanet",
        "KiNGDOM",
        "Leffe",
        "MeGusta",
        "mHD",
        "mSD",
        "nHD",
        "nikt0",
        "nSD",
        "NhaNc3",
        "PRODJi",
        "RDN",
        "SANTi",
        "STUTTERSHIT",
        "ViSION",
        "WAF",
        "x0r",
        "YIFY"
    ]
}