{
    "name": "TorrentDB",
    "url": "https://torrentdb.net/",
    "upload_form": "https://torrentdb.net/api/torrent/upload",
    "torrents_search": "https://torrentdb.net/api/torrent/search",
    "source": "TorrentDB.net",
    "platform": "TorrentDB",
    "bbcode_line_break": "\n",
    "title_separator": " ",
    "description_components": {
        "code_code": "[code][/code]",
        "spoiler_code": "[spoiler=TITLE_PLACEHOLDER][/spoiler]",
        "quote_code": "[quote][/quote]"
    },
    "technical_jargons": {
        "authentication_mode": "BEARER",
        "response_type": "JSON",
        "payload_type": "MULTI-PART"
    },
    "translation": {
        "dot_torrent": "torrent",
        "torrent_title": "name",
        "mediainfo": "media_info",
        "bdinfo": "media_info",
        "url_images": "screenshot_urls",
        "description": "description",
        "season_number": "season",
        "episode_number": "episode",
        "complete_season": "complete_season",
        "type": "category_id",
        "source": "source",
        "hybrid_type": "type_id",
        "resolution": "resolution",
        "anonymous": "anon",
        "3d": "threeD",
        "foreign": "foreign",
        "tmdb": "tmdb",
        "imdb": "imdb",
        "nfo_file": "nfo"
    },
    "hybrid_mappings": {
        "type_id": {
            "required": true,
            "prerequisite": [
                "category_id",
                "source",
                "resolution"
            ],
            "mapping": {
                "6": {
                    "category_id": {
                        "data_source": "tracker",
                        "values": [
                            "1"
                        ]
                    },
                    "source": {
                        "data_source": "tracker",
                        "values": [
                            "4"
                        ]
                    }
                },
                "54": {
                    "category_id": {
                        "data_source": "tracker",
                        "values": [
                            "1"
                        ]
                    },
                    "source": {
                        "data_source": "tracker",
                        "values": [
                            "1"
                        ]
                    }
                },
                "55": {
                    "category_id": {
                        "data_source": "tracker",
                        "values": [
                            "1"
                        ]
                    },
                    "source": {
                        "data_source": "tracker",
                        "values": [
                            "5"
                        ]
                    }
                },
                "56": {
                    "category_id": {
                        "data_source": "tracker",
                        "values": [
                            "1"
                        ]
                    },
                    "source": {
                        "data_source": "tracker",
                        "values": [
                            "2"
                        ]
                    }
                },
                "57": {
                    "category_id": {
                        "data_source": "tracker",
                        "values": [
                            "1"
                        ]
                    },
                    "source": {
                        "data_source": "tracker",
                        "values": [
                            "3"
                        ]
                    }
                },
                "58": {
                    "category_id": {
                        "data_source": "tracker",
                        "values": [
                            "1"
                        ]
                    },
                    "source": {
                        "data_source": "tracker",
                        "values": [
                            "6"
                        ]
                    }
                },
                "59": {
                    "category_id": {
                        "data_source": "tracker",
                        "values": [
                            "1"
                        ]
                    },
                    "resolution": {
                        "data_source": "tracker",
                        "values": [
                            "576p",
                            "480p"
                        ]
                    }
                },
                "53": {
                    "category_id": {
                        "data_source": "tracker",
                        "values": [
                            "2"
                        ]
                    },
                    "mal": {
                        "data_source": "torrent",
                        "not": true,
                        "values": [
                            "0"
                        ]
                    }
                },
                "21": {
                    "category_id": {
                        "data_source": "tracker",
                        "values": [
                            "2"
                        ]
                    },
                    "source": {
                        "data_source": "tracker",
                        "values": [
                            "4"
                        ]
                    }
                },
                "60": {
                    "category_id": {
                        "data_source": "tracker",
                        "values": [
                            "2"
                        ]
                    },
                    "source": {
                        "data_source": "tracker",
                        "values": [
                            "1"
                        ]
                    }
                },
                "61": {
                    "category_id": {
                        "data_source": "tracker",
                        "values": [
                            "2"
                        ]
                    },
                    "source": {
                        "data_source": "tracker",
                        "values": [
                            "5"
                        ]
                    }
                },
                "62": {
                    "category_id": {
                        "data_source": "tracker",
                        "values": [
                            "2"
                        ]
                    },
                    "source": {
                        "data_source": "tracker",
                        "values": [
                            "2"
                        ]
                    }
                },
                "63": {
                    "category_id": {
                        "data_source": "tracker",
                        "values": [
                            "2"
                        ]
                    },
                    "source": {
                        "data_source": "tracker",
                        "values": [
                            "3"
                        ]
                    }
                },
                "64": {
                    "category_id": {
                        "data_source": "tracker",
                        "values": [
                            "2"
                        ]
                    },
                    "source": {
                        "data_source": "tracker",
                        "values": [
                            "6"
                        ]
                    }
                },
                "65": {
                    "category_id": {
                        "data_source": "tracker",
                        "values": [
                            "2"
                        ]
                    },
                    "resolution": {
                        "data_source": "tracker",
                        "values": [
                            "576p",
                            "480p"
                        ]
                    }
                }
            },
            "__comments__": {
                "6": "Movies: Web-DL",
                "54": "Movies: Full Disk",
                "55": "Movies: WEBRip",
                "56": "Movies: Remux",
                "57": "Movies: Encode",
                "58": "Movies: HDTV",
                "59": "Movies: SDTV/PDTV",
                "21": "TV: Web-DL",
                "52": "TV: Sports - NOT POSSIBLE",
                "53": "TV: Anime",
                "60": "TV: Full Disk",
                "61": "TV: WEBRip",
                "62": "TV: Remux",
                "63": "TV: Encode",
                "64": "TV: HDTV",
                "65": "TV: SDTV/PDTV",
                "category_id": {
                    "1": "movie",
                    "2": "episode"
                }
            }
        }
    },
    "Required": {
        "torrent": "file",
        "name": "string",
        "type_id":"hybrid_type",
        "screenshot_urls": "string|array",
        "imdb": "string",
        "description": "string",
        "anon": "string",
        "foreign": "string",
        "threeD": "string",
        "tmdb": "string",
        "category_id": {
            "1": "movie",
            "2": "episode"
        },
        "source": {
            "1": {
                "disc": 1,
                "bluray_disc": 2,
                "dvd_disc": 2
            },
            "2": {
                "remux": 1,
                "bluray_remux": 2,
                "dvd_remux": 2
            },
            "3": {
                "bluray_encode": 1
            },
            "4": {
                "webdl": 1
            },
            "5": {
                "webrip": 1
            },
            "6": {
                "hdtv": 1
            },
            "7": {
                "sdtv": 1
            }
        },
        "resolution": {
            "4320p (8k)": {
                "4360p": 1
            },
            "2160p (4K)": {
                "2160p": 1
            },
            "1080p": {
                "1080p": 2,
                "1080i": 2
            },
            "720p": {
                "720p": 1
            },
            "576p": {
                "576p": 2,
                "576i": 2
            },
            "480p": {
                "480p": 2,
                "480i": 2
            },
            "Other/Mixed": {
                "other": 1
            }
        }
    },
    "Optional": {
        "nfo": "file|base64",
        "media_info": "string",
        "season": "string",
        "episode": "string",
        "complete_season": "string"
    },
    "Default": {
        "skip_duplicate_check": "1"
    },
    "dupes": {
        "technical_jargons": {
            "authentication_mode": "BEARER",
            "payload_type": "MULTI-PART",
            "request_method": "POST",
            "response_type": "JSON"
        },
        "strip_text": true,
        "payload": "{\"search\":\"<imdb>\"}",
        "parse_json": {
            "is_needed": false
        }
    },
    "torrent_title_format": {
        "episode": {
            "bluray_disc": "{title} {s00e00} {screen_size} {region} {source} {dv} {hdr} {video_codec} {audio_codec} {atmos} {audio_channels} {release_group}",
            "bluray_remux": "{title} {s00e00} {repack} {screen_size} {uhd} {hybrid} {source} {remux} {dv} {hdr} {video_codec} {audio_codec} {atmos} {audio_channels} {release_group}",
            "bluray_encode": "{title} {s00e00} {repack} {screen_size} {uhd} {hybrid} {source} {dv} {hdr} {video_codec} {audio_codec} {audio_channels} {atmos} {release_group}",
            "web": "{title} {s00e00} {repack} {screen_size} {web_source} {web_type} {dv} {hdr} {video_codec} {audio_codec} {atmos} {audio_channels} {release_group}",
            "hdtv": "{title} {s00e00} {repack} {screen_size} {hybrid} {source} {video_codec} {audio_codec} {audio_channels} {release_group}",
            "dvd": "{title} {s00e00} {edition} {repack} {screen_size} {region} {hybrid} {source} {remux} {video_codec} {audio_codec} {atmos} {audio_channels} {release_group}",
            "sdtv":  "{title} {s00e00} {edition} {repack} {screen_size} {region} {hybrid} {source} {remux} {video_codec} {audio_codec} {atmos} {audio_channels} {release_group}"
        },
        "movie": {
            "bluray_disc": "{title} {year} {edition} {repack} {screen_size} {region} {source} {dv} {hdr} {video_codec} {audio_codec} {atmos} {audio_channels} {release_group}",
            "bluray_remux": "{title} {year} {edition} {repack} {screen_size} {uhd} {hybrid} {source} {remux} {dv} {hdr} {video_codec} {audio_codec} {atmos} {audio_channels} {release_group}",
            "bluray_encode": "{title} {year} {edition} {repack} {screen_size} {uhd} {hybrid} {source} {dv} {hdr} {video_codec} {audio_codec} {atmos} {audio_channels} {release_group}",
            "web": "{title} {year} {edition} {repack} {screen_size} {hybrid} {web_source} {web_type} {dv} {hdr} {video_codec} {audio_codec} {atmos} {audio_channels} {release_group}",
            "hdtv": "{title} {year} {edition} {repack} {screen_size} {hybrid} {source} {video_codec} {audio_codec} {atmos} {audio_channels} {release_group}",
            "dvd": "{title} {year} {edition} {repack} {screen_size} {region} {hybrid} {source} {remux} {video_codec} {audio_codec} {atmos} {audio_channels} {release_group}",
            "sdtv": "{title} {year} {edition} {repack} {screen_size} {region} {hybrid} {source} {remux} {video_codec} {audio_codec} {atmos} {audio_channels} {release_group}"
        }
    },
    "torrent_title_translation" : {
        "DD+" : "DDP"
    },
    "banned_groups": [
        "YIFY",
        "YTS",
        "d3g",
        "mSD",
        "x0r",
        "RARBG",
        "MeGusta",
        "FGT"
    ]
}
